﻿<?xml version="1.0" encoding="utf-8"?>
<COLLADA xmlns:xsi="http://www.w3.org/2001/XMLSchema-instance" xmlns:xsd="http://www.w3.org/2001/XMLSchema" version="1.4.0" xmlns="http://www.collada.org/2005/11/COLLADASchema">
  <asset>
    <contributor>
      <author>Tobias Pott</author>
      <authoring_tool>WalhallaInteractive COLLADA exporter</authoring_tool>
      <comments />
      <copyright>Tobias Pott 2012</copyright>
      <source_data />
    </contributor>
    <created>2014-01-24T16:58:04.061549+02:00</created>
    <keywords />
    <modified>2014-01-24T16:58:04.061549+02:00</modified>
    <revision />
    <subject />
    <title />
    <unit meter="0.01" />
  </asset>
  <library_images>
    <image id="CuboidTexture-image" name="CuboidTexture">
      <init_from>Materials\Cuboid-tex.png</init_from>
    </image>
  </library_images>
  <library_materials>
    <material id="CuboidMaterial" name="CuboidMaterial">
      <instance_effect url="#CuboidShader-fx" />
    </material>
  </library_materials>
  <library_effects>
    <effect id="CuboidShader-fx" name="CuboidShader">
      <profile_COMMON>
        <technique sid="standard">
          <newparam sid="diffuse_surface_param_id">
            <surface type="2D">
              <init_from>CuboidTexture-image</init_from>
            </surface>
          </newparam>
          <newparam sid="diffuse_sampler2D_param_id">
            <sampler2D>
              <source>diffuse_surface_param_id</source>
            </sampler2D>
          </newparam>
          <lambert>
            <ambient>
              <color sid="ambient">0.000000 0.000000 0.000000 1.000000</color>
            </ambient>
            <diffuse>
              <texture texture="diffuse_sampler2D_param_id" texcoord="CHANNEL0" />
            </diffuse>
          </lambert>
        </technique>
      </profile_COMMON>
    </effect>
  </library_effects>
  <library_geometries>
    <geometry id="Cuboid-lib" name="Cuboid">
      <mesh>
        <source id="Cuboid-POSITION">
          <float_array id="Cuboid-POSITION-array" count="72">-25.000000 2.500000 -2.500000 25.000000 2.500000 -2.500000 -25.000000 2.500000 2.500000 25.000000 2.500000 2.500000 -25.000000 -2.500000 2.500000 25.000000 -2.500000 2.500000 -25.000000 -2.500000 -2.500000 25.000000 -2.500000 -2.500000 -25.000000 2.500000 -2.500000 -25.000000 2.500000 2.500000 -25.000000 -2.500000 -2.500000 -25.000000 -2.500000 2.500000 25.000000 -2.500000 -2.500000 25.000000 -2.500000 2.500000 25.000000 2.500000 -2.500000 25.000000 2.500000 2.500000 -25.000000 -2.500000 -2.500000 25.000000 -2.500000 -2.500000 -25.000000 2.500000 -2.500000 25.000000 2.500000 -2.500000 -25.000000 2.500000 2.500000 25.000000 2.500000 2.500000 -25.000000 -2.500000 2.500000 25.000000 -2.500000 2.500000</float_array>
          <technique_common>
            <accessor count="24" source="Cuboid-POSITION-array" stride="3">
              <param name="X" type="float" />
              <param name="Y" type="float" />
              <param name="Z" type="float" />
            </accessor>
          </technique_common>
        </source>
        <source id="Cuboid-Normal0">
          <float_array id="Cuboid-Normal0-array" count="72">0.000000 1.000000 0.000000 0.000000 1.000000 0.000000 0.000000 1.000000 0.000000 0.000000 1.000000 0.000000 0.000000 -1.000000 0.000000 0.000000 -1.000000 0.000000 0.000000 -1.000000 0.000000 0.000000 -1.000000 0.000000 -1.000000 0.000000 0.000000 -1.000000 0.000000 0.000000 -1.000000 0.000000 0.000000 -1.000000 0.000000 0.000000 1.000000 0.000000 0.000000 1.000000 0.000000 0.000000 1.000000 0.000000 0.000000 1.000000 0.000000 0.000000 0.000000 0.000000 -1.000000 0.000000 0.000000 -1.000000 0.000000 0.000000 -1.000000 0.000000 0.000000 -1.000000 0.000000 0.000000 1.000000 0.000000 0.000000 1.000000 0.000000 0.000000 1.000000 0.000000 0.000000 1.000000</float_array>
          <technique_common>
            <accessor count="24" source="Cuboid-Normal0-array" stride="3">
              <param name="X" type="float" />
              <param name="Y" type="float" />
              <param name="Z" type="float" />
            </accessor>
          </technique_common>
        </source>
        <source id="Cuboid-UV0">
          <float_array id="Cuboid-UV0-array" count="48">0.015625 0.015625 0.796875 0.015625 0.015625 0.093750 0.796875 0.093750 0.015625 0.125000 0.796875 0.125000 0.015625 0.203125 0.796875 0.203125 0.828125 0.125000 0.906250 0.125000 0.828125 0.203125 0.906250 0.203125 0.828125 0.015625 0.906250 0.015625 0.828125 0.093750 0.906250 0.093750 0.015625 0.343750 0.796875 0.343750 0.015625 0.421875 0.796875 0.421875 0.015625 0.234375 0.796875 0.234375 0.015625 0.312500 0.796875 0.312500</float_array>
          <technique_common>
            <accessor count="24" source="Cuboid-UV0-array" stride="2">
              <param name="S" type="float" />
              <param name="T" type="float" />
            </accessor>
          </technique_common>
        </source>
        <source id="Cuboid-VERTEX_COLOR0">
          <float_array id="Cuboid-VERTEX_COLOR0-array" count="96">0.788235 0.721569 0.509804 1.000000 0.788235 0.721569 0.509804 1.000000 0.788235 0.721569 0.509804 1.000000 0.788235 0.721569 0.509804 1.000000 0.788235 0.721569 0.509804 1.000000 0.788235 0.721569 0.509804 1.000000 0.788235 0.721569 0.509804 1.000000 0.788235 0.721569 0.509804 1.000000 0.788235 0.721569 0.509804 1.000000 0.788235 0.721569 0.509804 1.000000 0.788235 0.721569 0.509804 1.000000 0.788235 0.721569 0.509804 1.000000 0.788235 0.721569 0.509804 1.000000 0.788235 0.721569 0.509804 1.000000 0.788235 0.721569 0.509804 1.000000 0.788235 0.721569 0.509804 1.000000 0.788235 0.721569 0.509804 1.000000 0.788235 0.721569 0.509804 1.000000 0.788235 0.721569 0.509804 1.000000 0.788235 0.721569 0.509804 1.000000 0.788235 0.721569 0.509804 1.000000 0.788235 0.721569 0.509804 1.000000 0.788235 0.721569 0.509804 1.000000 0.788235 0.721569 0.509804 1.000000</float_array>
          <technique_common>
            <accessor count="24" source="Cuboid-VERTEX_COLOR0-array" stride="4">
              <param name="R" type="float" />
              <param name="G" type="float" />
              <param name="B" type="float" />
              <param name="A" type="float" />
            </accessor>
          </technique_common>
        </source>
        <vertices id="Cuboid-VERTEX">
          <input semantic="POSITION" source="#Cuboid-POSITION" />
        </vertices>
        <triangles count="12" material="CuboidMaterial">
          <input offset="0" semantic="VERTEX" source="#Cuboid-VERTEX" />
          <input offset="1" semantic="NORMAL" source="#Cuboid-Normal0" />
          <input offset="2" semantic="TEXCOORD" source="#Cuboid-UV0" />
          <input offset="3" semantic="COLOR" source="#Cuboid-VERTEX_COLOR0" />
          <p>0 0 0 0 3 3 3 3 1 1 1 1 0 0 0 0 2 2 2 2 3 3 3 3 4 4 4 4 7 7 7 7 5 5 5 5 4 4 4 4 6 6 6 6 7 7 7 7 8 8 8 8 11 11 11 11 9 9 9 9 8 8 8 8 10 10 10 10 11 11 11 11 12 12 12 12 15 15 15 15 13 13 13 13 12 12 12 12 14 14 14 14 15 15 15 15 16 16 16 16 19 19 19 19 17 17 17 17 16 16 16 16 18 18 18 18 19 19 19 19 20 20 20 20 23 23 23 23 21 21 21 21 20 20 20 20 22 22 22 22 23 23 23 23</p>
        </triangles>
      </mesh>
    </geometry>
  </library_geometries>
  <library_visual_scenes>
    <visual_scene id="CuboidScene" name="CuboidScene">
      <node id="Cuboid" name="Cuboid" sid="Cuboid">
        <matrix sid="matrix">1.000000 0.000000 0.000000 0.000000 0.000000 1.000000 0.000000 0.000000 0.000000 0.000000 1.000000 0.000000 0.000000 0.000000 0.000000 1.000000</matrix>
        <instance_geometry url="#Cuboid-lib">
          <bind_material>
            <technique_common>
              <instance_material symbol="CuboidMaterial" target="#CuboidMaterial" />
            </technique_common>
          </bind_material>
        </instance_geometry>
      </node>
    </visual_scene>
  </library_visual_scenes>
  <scene>
    <instance_visual_scene url="#CuboidScene" sid="" name="" />
  </scene>
</COLLADA>
